Promotional Code,Start Date,End Date,Discount type,Minimum Amount,Promotional Amount,Usage Limit per user
POST,25/11/2013,25/02/2014,$,16.5,16.5,0
TestClass,18/03/2014,31/03/2017,%,0,98,2
SUSUK60,25/03/2014,27/03/2014,$,100,60,0
TEstDCS,15/04/2014,30/04/2014,%,20,5,1
MariaOliverOC,23/04/2014,24/04/2014,$,99,99,1
ASIA14,23/04/2014,23/04/2015,%,10,10,9999
STAFFOC,24/04/2014,30/06/2016,$,99,99,9994
socopen14,18/05/2014,30/05/2014,%,25,25,9988
FORUMFIX,23/05/2014,01/01/2020,$,99,99,9998
rosiefs14,29/05/2014,31/12/2014,%,10,30,9999
SOCMEDIA,30/05/2014,01/02/2019,$,99,99,9998
KTfriends,30/05/2014,02/01/2017,$,520,520,9998
TRYIT,03/06/2014,01/01/2015,%,1,100,9948
garageclass14a,21/06/2014,25/06/2014,%,10,20,9986
CHANGE,27/06/2014,31/10/2014,%,1,100,9998
ffnz14,19/06/2014,30/06/2014,%,25,25,9996
OCcompl150814,15/08/2014,16/08/2014,$,99,99,0
FFSOC14,12/09/2014,26/09/2014,%,5,25,9989
10Percent,17/09/2014,24/09/2014,%,1,10,9
RCA14,26/09/2014,01/04/2017,%,1,25,9996
CBSOC14,26/09/2014,13/10/2014,%,5,25,9992
SOCSTUDENT14,30/10/2014,01/03/2016,$,20,20,9971
SOCXMAS14,10/12/2014,26/12/2014,%,1,15,9949
FJOCdw1,15/12/2014,21/01/2015,$,64.85,64.85,0
SUBYR991,18/12/2014,18/12/2015,$,99,99,0
USTESTSOC,18/12/2014,15/01/2015,%,1,99,9997
SOCBDAY14,05/01/2015,31/03/2016,%,5,15,9690
chrisk,20/01/2015,30/06/2015,$,40,40,0
frank10,27/01/2015,01/01/2020,%,5,10,9778
2015SOC0,10/02/2015,31/12/2015,$,99,99,19
instawinnerfeb,11/02/2015,28/02/2015,$,99,99,3
8pV5Tk,16/02/2015,17/02/2015,$,99,99,0
CESC152,02/04/2015,02/10/2015,$,500,500,1
CESC15S,01/04/2015,02/10/2015,$,500,500,1
10,01/04/2015,02/04/2015,$,0.1,0.1,0
savouronline,14/04/2015,19/04/2015,%,5,15,0
LOYALTY2015,12/05/2015,31/12/2015,$,80,10,8000
CBSOC15,11/06/2015,30/06/2015,%,15,15,9988
BC1101,23/07/2015,08/08/2017,$,300,300,1
BC1102,24/07/2015,24/07/2016,$,300,300,1
KC001001,13/08/2015,13/08/2016,$,648,648,2
anna,17/08/2015,18/08/2015,$,200,200,0
FFSOC15,01/09/2015,31/10/2015,%,9,15,9986
CBSSOC15,09/10/2015,03/11/2015,%,5,15,9973
CBGTOC1,19/10/2015,23/04/2016,$,99,99,7
GFTV001,09/12/2015,09/12/2016,$,100,100,0
GFTV002,09/12/2015,09/12/2016,$,100,100,0
GFTV003,09/12/2015,09/12/2016,$,100,100,0
yvinsta011,25/11/2015,26/11/2015,%,1,100,0
psofty01,27/11/2015,27/11/2015,%,1,100,0
CN9286,06/01/2016,06/07/2016,$,11,11,0
CN9118,06/01/2016,06/07/2016,$,95.1,95.1,1
CN8883,08/01/2016,08/01/2017,$,68,68,1
CN8601,12/01/2016,12/07/2016,$,139,139,1
CN9359,20/01/2016,20/01/2017,$,50,50,1
JONES2001JS,20/01/2016,20/01/2017,$,100,100,0
NZ16A,01/02/2016,29/02/2016,%,1,15,9996
PPSOC16,08/02/2016,31/05/2017,%,5,15,9995
NZAC999,11/02/2016,12/02/2016,%,10,100,0
sweetopia16,11/02/2016,31/12/2016,$,40,10,9999
SOCCEX16A,17/02/2016,15/11/2016,%,1,15,9866
eHVZ5w,18/02/2016,20/07/2016,$,200,200,1
STUDENT16,01/03/2016,31/12/2016,%,10,15,9998
zhou1234,21/03/2016,21/09/2016,$,299,299,1
BACHOUR10,01/04/2016,31/12/2017,%,5,10,9878
FFSOC16,07/04/2016,21/04/2016,%,20,10,9991
CN10371,26/04/2016,26/04/2017,$,166,166,3
SOCPY16,19/05/2016,31/05/2016,%,5,15,9993
spotyv001,30/05/2016,30/09/2016,$,99,99,1
spotyv002,30/05/2016,30/09/2016,$,99,99,0
spotyv003,30/05/2016,30/09/2016,$,99,99,0
spotyv004,30/05/2016,30/09/2016,$,99,99,0
CBSYD16,30/05/2016,14/06/2016,%,5,15,9995
CN11556,02/06/2016,02/06/2017,$,115.69,115.69,1
CN10245,03/06/2016,03/02/2017,$,2169,2169,0
zQDPTb,03/06/2016,03/12/2016,$,230,230,0
CN11684,15/06/2016,15/12/2016,$,98.5,98.5,1
CN11084,15/06/2016,15/12/2016,$,34,34,0
CN11673,15/06/2016,15/12/2016,$,25,25,1
GVaP001,21/06/2016,21/06/2017,$,100,100,0
GVaP002,21/06/2016,21/06/2017,$,100,100,0
GVaP003,21/06/2016,21/06/2017,$,100,100,0
ABC123MELB,21/06/2016,30/06/2016,$,99,99,1
GV0407JS1,04/07/2016,04/07/2017,$,300,300,1
ACDNSOC16,08/07/2016,17/07/2016,%,5,10,9998
CITSOC16,03/08/2016,27/08/2016,%,10,10,9996
CN12646,05/08/2016,05/08/2017,$,22.9,22.9,0
CN12649,05/08/2016,05/08/2017,$,122,122,1
BC1103,05/08/2016,05/08/2017,$,300,300,1
BC1104,05/08/2016,05/08/2017,$,28,28,1
1208JSNT,12/08/2016,12/05/2017,$,99,99,1
JOHAN10,09/08/2016,09/08/2026,%,5,10,9999
TQB0101,03/11/2016,03/11/2017,$,99,99,1
CIR123,28/09/2016,30/09/2017,$,20,20,1
28102016SL,28/10/2016,28/10/2017,$,500,500,0
28102016OC,28/10/2016,28/10/2017,$,99,99,0
frank10a,17/10/2016,01/01/2020,%,5,10,9999
20161107Z1,07/11/2016,07/11/2017,$,500,500,1
20161107Z2,07/11/2016,07/11/2017,$,500,500,0
CN13755,15/11/2016,15/11/2017,$,849,849,0
CHOC4EVER,16/11/2016,31/12/2016,%,10,10,984
CN10525,08/12/2016,08/06/2017,$,780,780,1
GV021216,12/12/2016,02/12/2017,$,200,200,1
GETCOOKING,18/01/2017,31/01/2017,%,2,10,968
SWEETFEB,01/02/2017,05/03/2017,%,1,10,993
JaoVBs,14/03/2017,31/03/2017,$,99,99,0
TASTYMARCH,21/03/2017,31/03/2017,%,1,10,995
SC0404,04/04/2017,24/12/2017,$,99,99,1
tbc1280,12/10/2015,15/04/2021,%,1,10,9998
GSALE2016,25/06/2016,27/06/2016,%,1,20,4847
peac1200,09/09/2014,09/09/2020,%,1,10,9982
nora1198,09/09/2014,09/09/2020,%,1,10,9999
gabe1233,25/09/2014,25/09/2020,%,1,10,9999
zimt1201,11/09/2014,11/09/2020,%,1,10,9999
cdm1215,19/09/2014,19/09/2020,%,1,10,9998
cann1225,23/09/2014,23/09/2020,%,1,10,9999
LRFD1217,22/09/2014,22/09/2020,%,1,10,9999
MPC1226,23/09/2014,23/09/2020,%,1,10,9999
DBD1227,23/09/2014,23/09/2020,%,1,10,9999
wild1228,23/09/2014,23/09/2020,%,1,10,9999
fres1229,25/09/2014,24/09/2020,%,1,10,9999
PCPC1230,25/09/2014,25/09/2020,%,1,10,9999
seno1231,25/09/2014,25/09/2020,%,1,10,9999
mrso1232,25/09/2014,25/09/2020,%,1,10,9999
bels1234,25/09/2014,25/09/2020,%,1,10,9999
quin1224,23/09/2014,23/09/2020,%,1,10,9999
SGID1235,25/09/2014,25/09/2020,%,1,10,9999
SCBR1223,23/09/2014,23/09/2020,%,1,10,9999
cake1216,22/09/2014,22/09/2020,%,1,10,9999
cake1221,23/09/2014,23/09/2020,%,1,10,9999
pass1218,22/09/2014,22/09/2020,%,1,10,9999
milli1324,27/02/2017,17/03/2019,%,1,10,999
metro1304,02/09/2016,07/03/2020,%,0,10,9996
micro1322,06/02/2017,31/12/2019,%,1,10,998
choc1208,01/10/2016,01/10/2019,%,1,10,998
miod1222,23/09/2014,16/09/2020,%,1,10,9999
just1323,14/02/2017,31/12/2019,%,1,10,998
tilb1308,10/10/2016,01/01/2020,%,1,10,9995
gela1220,23/09/2014,23/09/2020,%,1,10,9999
shee1236,25/09/2014,25/09/2020,%,1,10,9999
ado110,27/01/2016,04/08/2016,$,57,57,0
rach2503,25/03/2015,25/09/2015,$,40,40,0
BJ1803,18/03/2015,18/09/2015,$,40,40,1
ROYALAG15a,10/02/2015,10/08/2015,$,500,500,1
STANNE5,18/02/2014,18/02/2015,$,5,5,1
MB140,16/04/2014,16/10/2014,$,140,140,0
SHIRL55,16/01/2014,16/07/2014,$,55,55,1
PAMWAT,04/12/2013,04/12/2014,$,19,19,0
NIKKI1911,19/11/2014,19/05/2015,$,5,5,1
CHRISTIE,08/01/2014,08/07/2014,$,76.5,76.5,1
garage14,21/06/2014,22/06/2014,%,1,15,9956
garageipc1,22/06/2015,22/07/2015,%,1,15,7
mmgs15,23/06/2015,23/12/2015,%,1,15,1
garage15,20/06/2015,21/06/2015,%,1,15,9923
TPB1329,31/03/2017,31/03/2020,%,1,10,999
deto1305,05/09/2016,01/02/2020,%,0,10,998
audl1324,02/03/2017,02/03/2021,%,1,10,998
indu1330,21/04/2017,31/12/2020,%,1,10,999
EMSEN1188,28/01/2014,01/01/2020,%,1,10,9998
OLDPAR1186,09/01/2014,01/01/2020,%,1,10,9999
cocob1184,18/11/2013,01/01/2020,%,1,10,9997
johnm1185,22/11/2013,01/01/2020,%,1,10,9999
neds1326,06/03/2017,31/12/2021,%,1,10,999
KEEPIT1187,20/01/2014,01/01/2020,%,1,10,9997
ltzeb1308,10/10/2016,31/12/2019,%,1,10,9999
dppm1306,16/09/2016,31/01/2020,%,0,10,0
SM2017a,02/03/2017,14/03/2017,%,20,20,9981
11MARBC,11/03/2014,31/03/2014,%,500,10,1
DAY12,24/03/2014,24/03/2014,%,1,25,9969
NBCF,08/07/2014,09/07/2014,$,0,260,0
yHMpKP,15/09/2014,16/09/2014,$,200,200,0
GVC0102,22/12/2014,26/12/2014,$,250,250,0
CN16011,10/02/2017,10/08/2017,$,1106.8,1106.8,0
CN16074,10/02/2017,10/08/2017,$,268,268,0
CN15775,09/03/2017,09/09/2017,$,238,238,1
CR410VIP,09/01/2017,09/07/2017,$,850,850,1
MOFFITT10SL,11/01/2017,17/02/2017,%,10,10,1
CN14831,11/01/2017,11/07/2017,$,804,804,0
CN14832,11/01/2017,11/07/2017,$,819,819,0
CN15337,11/01/2017,11/07/2017,$,218.4,218.4,1
ROGERS912SL,09/12/2016,09/06/2017,%,20,20,1
CRABB912SL,09/12/2016,09/06/2017,%,20,20,1
STIRLING912SL,09/12/2016,09/06/2017,%,20,20,1
CN2478,05/10/2016,05/04/2017,$,400,400,1
CN7856,05/10/2016,05/04/2017,%,1,30,0
CN13301,05/10/2016,05/04/2017,$,765,765,0
CN11868,05/10/2016,05/04/2017,$,132.5,132.5,1
OPEN16,10/09/2016,11/09/2016,%,1,15,989
CN10959,10/08/2016,10/03/2017,$,1030,1030,0
CN11752,17/11/2016,17/05/2017,$,1370,1370,1
CN9978,17/06/2016,17/12/2016,$,1370,1370,1
CN10631,24/05/2016,24/04/2017,$,215,215,1
CN11140,27/05/2016,27/11/2016,$,219,219,1
CN11024,27/05/2016,27/11/2016,$,235,235,0
CN8209,19/05/2016,19/11/2016,$,182,182,0
CN1079510761,28/04/2016,28/04/2017,$,1645,1645,0
CN8090,29/04/2016,01/11/2016,$,650,650,0
CN13053,17/08/2016,17/08/2017,$,265,265,1
CN12797,17/08/2016,17/02/2017,$,485,485,1
CN11088,05/08/2016,05/02/2017,$,235,235,1
CN12412,29/07/2016,29/01/2017,$,239,239,1
CN11001,07/07/2016,07/01/2017,$,235,235,0
RI1000,30/07/2015,01/08/2015,%,260,50,0
CLABET15JS,16/06/2015,20/12/2015,$,2875,2875,1
SAMWIL1,21/05/2015,21/05/2016,$,240,240,1
OPEN15,24/05/2015,24/05/2016,%,20,20,9967
CN6891,28/01/2016,28/07/2016,$,235,235,0
CN6965,05/01/2016,05/01/2017,$,1644,1644,0
CN5988,03/02/2016,03/08/2016,$,215,215,1
CN4631,24/02/2016,24/07/2016,$,230,230,1
CN8327,01/03/2016,01/09/2016,$,775,775,1
CN7423,24/02/2016,24/08/2016,$,469,469,0
CN6922,28/10/2015,28/10/2016,$,230,230,0
CN9117,11/01/2016,11/01/2017,$,235,235,0
CN15701,21/02/2017,21/08/2017,$,516,516,1
CN16049,06/04/2017,06/10/2017,$,1927,1927,1
CN17124,11/04/2017,11/10/2017,$,252,252,1
ENZ770,14/01/2014,14/07/2014,$,770,770,0
JMV003,26/07/2016,28/07/2017,$,1500,1500,0
CBSSMLB16,18/10/2016,01/01/2017,$,25,25,9999
NLAPR15b,01/04/2015,30/06/2015,$,20,20,9972
ITPNOV151,02/09/2015,02/09/2016,$,210,210,1
LPTN001,19/05/2016,19/05/2017,$,265,265,0
JMV001,26/07/2016,25/07/2017,$,1500,1500,1
JMV002,26/07/2016,26/07/2017,$,1500,1500,0
HUNTER13,20/10/2014,21/10/2014,$,500,500,0
NIGHTOWL14,30/05/2014,09/06/2014,%,10,20,9999
ODoct14,19/10/2014,10/11/2014,%,250,20,0
GS111,16/07/2015,17/07/2015,%,10,10,0
CHOCTOBER16,10/10/2016,18/10/2016,%,10,20,9893
skal1285,13/01/2016,17/06/2021,%,1,10,9999
ther1286,13/01/2016,11/02/2021,%,1,10,9999
mel1603,16/03/2015,16/09/2015,$,20,20,0
Adela1120,08/11/2013,01/01/2020,%,1,10,9996
TRACY20,16/06/2015,16/12/2015,$,20,20,1
amab1274,10/08/2015,19/05/2021,%,1,10,9999
tdbc1271,02/07/2015,15/12/2021,%,1,10,9999
JJSB1192,29/05/2014,01/01/2020,%,1,10,9999
loch1193,29/05/2014,01/01/2020,%,1,10,9999
TCT1250,28/01/2015,25/09/2020,%,1,10,9998
SWT1267,28/05/2015,26/11/2020,%,1,10,9999
bie1282,11/11/2015,17/02/2022,%,1,10,9999
Aucti1101,08/11/2013,01/01/2020,%,1,10,9999
Books1102,08/11/2013,01/01/2020,%,1,10,9999
ChezD1103,08/11/2013,01/01/2020,%,1,10,9998
CosiD1104,08/11/2013,01/01/2020,%,1,10,9999
DaciD1105,08/11/2013,01/01/2020,%,1,10,9998
Gabri1106,08/11/2013,01/01/2020,%,1,10,9999
Indul1107,08/11/2013,01/01/2020,%,1,10,9998
Josop1108,08/11/2013,01/01/2020,%,1,10,9999
Julie1109,08/11/2013,01/01/2020,%,1,10,9999
MeltM1110,08/11/2013,01/01/2020,%,1,10,9999
Missi1111,08/11/2013,01/01/2020,%,1,10,9999
Richa1112,08/11/2013,01/01/2020,%,1,10,9997
South1113,08/11/2013,01/01/2020,%,1,10,9999
TAFEN1114,08/11/2013,01/01/2020,%,1,10,9999
TNECC1115,08/11/2013,01/01/2020,%,1,10,9999
Three1116,08/11/2013,01/01/2020,%,1,10,9999
Tomam1117,08/11/2013,01/01/2020,%,1,10,9999
Unive1118,08/11/2013,01/01/2020,%,1,10,9999
Alafo1119,08/11/2013,01/01/2020,%,1,10,9999
Adria1121,08/11/2013,01/01/2020,%,1,10,9999
Artfu1122,08/11/2013,01/01/2020,%,1,10,9999
Black1123,08/11/2013,01/01/2020,%,1,10,9999
Bliss1124,08/11/2013,01/01/2020,%,1,10,9999
Bloss1125,08/11/2013,01/01/2020,%,1,10,9995
Brace1126,08/11/2013,01/01/2020,%,1,10,9999
Burch1127,08/11/2013,01/01/2020,%,1,10,9998
Cacao1128,08/11/2013,01/01/2020,%,1,10,9999
VIP1415,08/01/2015,09/01/2021,%,1,10,9999
minl1237,15/10/2014,14/10/2020,%,1,10,9999
past1245,20/11/2014,20/11/2020,%,1,10,9999
GKSI1246,20/11/2014,20/11/2020,%,1,10,9999
city1243,03/11/2014,03/11/2020,%,1,10,9998
GMF1244,10/11/2014,10/11/2020,%,1,10,9999
ILC1248,27/11/2014,27/11/2020,%,1,10,9998
sake1248,27/11/2014,28/11/2020,%,1,10,9997
hawk1238,22/10/2014,22/10/2020,%,1,10,9999
krav1239,27/10/2014,27/10/2020,%,1,10,9995
mark1240,28/10/2014,27/10/2020,%,1,10,9998
dark1241,29/10/2014,29/10/2020,%,1,10,9998
smoo1242,29/10/2014,29/10/2020,%,1,10,9998
litt1199,09/09/2014,11/11/2020,%,1,10,9997
TOHE1207,29/01/2015,24/12/2020,%,1,10,9998
temp1251,04/02/2015,09/10/2020,%,1,10,9994
COP1252,05/02/2015,06/01/2021,%,1,10,9999
Sweet1173,08/11/2013,01/01/2020,%,1,10,9997
choc1254,25/02/2015,23/09/2020,%,1,10,9996
mam1260,31/03/2015,31/08/2020,%,1,10,9999
JFFC1261,31/03/2015,31/10/2020,%,1,10,9999
TCR1259,18/03/2015,12/08/2020,%,1,10,9997
TFMB1255,26/02/2015,10/09/2020,%,1,10,9999
LPPP1256,27/02/2015,20/08/2020,%,1,10,9998
TBG1268,28/05/2015,26/11/2020,%,1,10,9999
TAFE1266,07/05/2015,24/02/2021,%,1,10,9996
BSMF1262,13/04/2015,22/09/2020,%,1,10,9999
corn1263,22/04/2015,23/09/2020,%,1,10,9998
GSC1264,27/04/2015,17/12/2020,%,1,10,9999
HHDT1265,27/04/2015,17/02/2021,%,1,10,9999
CID1257,04/03/2015,07/10/2020,%,1,10,9998
litt1272,09/07/2015,20/05/2021,%,1,10,9996
VIPJULIE,13/08/2015,19/11/2020,%,1,10,9998
clyd1275,18/08/2015,17/03/2021,%,1,10,9999
jacq1276,19/08/2015,14/01/2021,%,1,10,9999
twfp1284,23/11/2015,23/10/2023,%,1,10,9990
rrc1282,04/11/2015,10/11/2021,%,1,10,9999
rsl1281,21/10/2015,18/05/2022,%,1,10,9996
gmp1278,08/10/2015,21/10/2022,%,1,10,9998
blac1279,12/10/2015,16/09/2021,%,1,10,9999
kate1277,20/09/2015,21/07/2021,%,1,10,9998
trea1287,12/02/2016,31/07/2021,%,1,10,9995
TSB1249,01/12/2014,02/12/2020,%,1,10,9999
labe1270,25/06/2015,01/01/2020,%,1,10,9997
Etih1269,11/06/2015,01/01/2020,%,1,10,9998
KSC1247,26/11/2014,26/11/2020,%,1,10,9990
VIP101,02/09/2015,17/12/2020,%,1,10,9992
LRR1298,08/07/2016,21/10/2022,%,1,10,9998
artp1296,01/06/2016,01/06/2021,%,1,10,9997
koi1297,01/06/2016,01/06/2021,%,1,15,9999
LTVIP10,09/09/2015,01/01/2023,%,1,10,9997
Ciocc1135,08/11/2013,01/01/2020,%,1,10,9998
FourW1148,08/11/2013,01/01/2020,%,1,10,9989
tram1196,22/07/2014,01/01/2020,%,1,10,9999
ging1194,06/06/2014,01/01/2020,%,2,10,9999
VIPTurner1253,18/02/2015,01/01/2020,%,1,10,9989
trb1291,11/03/2016,29/12/2018,%,1,10,9999
oter1291,21/03/2016,31/05/2018,%,1,15,9999
ket1290,18/03/2016,30/06/2018,%,1,10,9999
jenn1300,26/07/2016,30/03/2018,%,1,10,9998
rust1292,14/04/2016,02/11/2018,%,0.99,10,999
moon1307,06/10/2016,31/05/2019,%,1,10,999
bean1310,13/10/2016,31/05/2018,%,1,10,998
ctco1317,01/12/2016,01/01/2021,%,1,10,985
buen1313,03/11/2016,03/11/2019,%,1,10,999
kirk1288,17/02/2016,31/07/2019,%,1,10,9999
shar1289,22/02/2016,31/07/2019,%,1,10,9999
rich1295,30/05/2016,30/06/2020,%,1,10,9997
edc1290,11/03/2016,13/07/2018,%,1,10,9998
bake1311,13/10/2016,27/04/2018,%,1,10,999
repe1312,01/10/2016,01/12/2018,%,1,10,9998
deni1299,12/07/2016,15/11/2018,%,1,10,998
peni1319,10/12/2016,28/07/2018,%,1,10,665
gilf1320,03/01/2017,18/05/2018,%,1,10,998
euro1301,22/08/2016,31/05/2019,%,1,10,9998
ysty1294,26/05/2016,01/09/2018,%,1,10,9996
ergo1315,11/11/2016,31/12/2019,%,0,10,998
choc1303,30/08/2016,01/02/2019,%,1,10,998
char1318,14/12/2016,14/12/2019,%,1,10,9998
bake1320,31/01/2017,31/05/2018,%,1,10,996
suga1321,01/02/2017,30/11/2018,%,1,10,999
pbr1273,15/07/2015,14/01/2021,%,1,10,9999
mora1302,23/08/2016,15/09/2018,%,1,10,9999
gyps1300,08/08/2016,15/06/2017,%,1,10,998
Murat1160,08/11/2013,01/01/2020,%,1,10,9999
Chouk1134,08/11/2013,01/01/2020,%,1,10,9999
Luxbi1156,08/11/2013,01/01/2020,%,1,10,9998
Macar1157,08/11/2013,01/01/2020,%,1,10,9999
Melbo1158,08/11/2013,01/01/2020,%,1,10,9999
Minis1159,08/11/2013,01/01/2020,%,1,10,9999
Ninet1162,08/11/2013,01/01/2020,%,1,10,9999
Nugge1163,08/11/2013,01/01/2020,%,1,10,9999
Pana 1164,08/11/2013,01/01/2020,%,1,10,9999
Peddl1165,08/11/2013,01/01/2020,%,1,10,9999
Red C1166,08/11/2013,01/01/2020,%,1,10,9999
Sage 1167,08/11/2013,01/01/2020,%,1,10,9999
Shine1168,08/11/2013,01/01/2020,%,1,10,9999
Shoco1169,08/11/2013,01/01/2020,%,1,10,9999
Sisko1170,08/11/2013,01/01/2020,%,1,10,9999
Steve1171,08/11/2013,01/01/2020,%,1,10,9999
Surf 1172,08/11/2013,01/01/2020,%,1,10,9999
Frate1149,08/11/2013,01/01/2020,%,1,10,9999
Origi1176,08/11/2013,01/01/2020,%,1,10,9999
TwotaT1177,08/11/2013,02/01/2020,%,1,10,9999
Unoxa1178,08/11/2013,01/01/2020,%,1,10,9999
Urban1179,08/11/2013,01/01/2020,%,1,10,9998
WildP1180,08/11/2013,01/01/2020,%,1,10,9999
annap1181,08/11/2013,01/01/2020,%,1,10,9999
berna1182,08/11/2013,01/01/2020,%,1,10,9999
IGARu1183,12/11/2013,01/01/2020,%,1,10,9999
Taxi 1174,08/11/2013,01/01/2020,%,1,10,9999
Austr1175,08/11/2013,01/01/2020,%,1,10,9999
CoCot1139,08/11/2013,01/01/2020,%,1,10,9999
CupzN1142,08/11/2013,01/01/2020,%,1,10,9999
Deshe1143,08/11/2013,01/01/2020,%,1,10,9999
FMaye1145,08/11/2013,01/01/2020,%,1,10,9999
CocoM1136,08/11/2013,01/01/2020,%,1,10,9999
Cocoa1137,08/11/2013,01/01/2020,%,1,10,9999
Cocoa1138,08/11/2013,01/01/2020,%,1,10,9999
Frugi1150,08/11/2013,01/01/2020,%,1,10,9998
Hunte1151,08/11/2013,01/01/2020,%,1,10,9999
Belle1153,08/11/2013,01/01/2020,%,1,10,9999
Cater1129,08/11/2013,01/01/2020,%,1,10,9999
Charl1130,08/11/2013,01/01/2020,%,1,10,9999
Chocl1131,08/11/2013,01/01/2020,%,1,10,9998
Fergu1147,08/11/2013,01/01/2020,%,1,10,9999
Ndul1161,08/11/2013,01/01/2020,%,1,10,9999
Choco1133,08/11/2013,01/01/2020,%,1,10,9999
Short1152,08/11/2013,01/01/2020,%,1,10,9998
Choco1132,08/11/2013,01/01/2020,%,1,10,9999
FastE1146,08/11/2013,01/01/2020,%,1,10,9999
Dunca1144,08/11/2013,01/01/2020,%,1,10,9999
Coles1140,08/11/2013,01/01/2020,%,1,10,9999
Creat1141,08/11/2013,01/01/2020,%,1,10,9999
only1316,01/12/2016,30/06/2018,%,1,10,997
venu1293,25/05/2016,01/06/2018,%,1,10,9998
Licke1155,08/11/2013,01/01/2020,%,1,10,9998
LaCho1154,08/11/2013,01/01/2020,%,1,10,9999
JEROME550,20/02/2014,20/02/2014,$,1000,550,0
EM15,20/03/2015,02/04/2015,$,150,30,9997
FSMOULD514,22/05/2014,29/05/2014,%,1,20,9978
eastmould17,13/04/2017,21/04/2017,%,5,20,9975
CPL114,10/02/2014,13/02/2014,%,10,25,9999
GROSSIFLOR,25/03/2014,25/03/2014,%,100,20,0
OldVoucher,07/07/2014,08/07/2014,$,0,100,0
RNgu,12/08/2014,13/08/2014,%,200,10,0
GUM15APR,20/04/2015,20/06/2015,$,20,20,9999
B2B2017,19/04/2017,19/04/2017,%,1,10,0
MURRAY15,18/07/2014,19/07/2014,%,10,15,0
EC15,20/03/2015,30/03/2015,$,30,30,9996
CAKEDECO17,10/03/2017,10/09/2017,%,15,15,100
CN14091,11/01/2017,11/07/2017,$,273,273,1
instawinnerhoc,11/02/2015,28/02/2015,$,260,260,0
socapril14,02/05/2014,05/05/2014,%,1,20,9998
DAY8,11/12/2013,11/12/2013,%,1,25,9995
bullacomp2,14/03/2014,14/03/2015,$,260,260,1
compclass01,10/01/2014,10/06/2014,$,260,260,9998
PROMO39,09/04/2014,09/04/2014,$,39,39,0
SYANG170,24/04/2014,24/04/2014,$,170,170,0
dcb1007,23/06/2015,23/12/2015,$,100,100,0
PMAC002,20/03/2017,20/09/2017,$,265,265,0
SAN470,27/03/2014,27/09/2014,$,470,470,1
smsep16a,19/09/2016,01/12/2016,$,25,25,9996
smaug16b,23/08/2016,30/11/2016,$,25,25,9994
NLOCT15a,06/10/2015,31/12/2015,$,20,20,9985
FOODSERV14,25/05/2014,31/08/2014,%,20,20,9996
ACDN001,24/06/2016,24/06/2017,$,265,265,0
CNVIP,07/06/2016,31/03/2017,$,1248,1248,1
NLNOV16b,03/11/2016,30/04/2017,$,20,20,9902
TQB001,03/11/2016,03/11/2017,$,500,500,1
MCH001,03/11/2016,03/11/2017,$,265,265,1
20GEO,11/08/2014,11/08/2020,%,200,20,1
IANPIT,02/12/2013,02/06/2014,$,75,75,1
NUTT280,18/03/2014,15/08/2014,$,280,280,0
CCF15JS,02/06/2015,02/06/2016,$,260,260,1
DHJ456GF,15/04/2015,15/04/2016,$,612,612,0
INTROSEAH1,13/05/2015,13/05/2016,$,100,100,0
INTROCUBA1,13/05/2015,13/05/2016,$,100,100,0
INTRODUNL1,13/05/2015,13/05/2016,$,100,100,1
INTROLUCE1,13/05/2015,13/05/2016,$,100,100,1
INTROBUSI1,13/05/2015,13/05/2016,$,100,100,0
INTROTAN1,13/05/2015,13/05/2016,$,100,100,1
INTROSABE1,13/05/2015,13/05/2016,$,100,100,0
INTRORICH1,13/05/2015,13/05/2016,$,100,100,1
INTROHARR1,13/05/2015,13/05/2016,$,100,100,1
SAVCL15JS,02/06/2015,02/06/2016,$,260,260,1
SPOTYOW16,07/06/2016,07/06/2017,$,3000,3000,1
SPOTYJA16,06/06/2016,06/06/2017,$,1000,1000,0
SPOTYEC16,07/06/2016,07/06/2017,$,1000,1000,1
SPOTYMC16,07/06/2016,07/06/2017,$,515,515,1
BMTR001,01/06/2016,01/07/2017,$,265,265,1
BMTR002,01/06/2016,01/07/2017,$,265,265,1
NLDEC14,01/12/2014,31/12/2014,%,10,10,1000
schott90,13/02/2015,14/02/2015,$,90,90,0
TWR001,21/07/2016,21/07/2017,$,265,265,1
MORTEA15JS,01/06/2015,01/12/2015,$,260,260,1
NLNOV15c,06/11/2015,31/01/2016,$,20,20,9983
NLNOV13,31/10/2013,30/11/2013,%,150,10,1964
NLAPR17b,04/04/2017,30/06/2017,$,25,25,9999
GIFT16,22/11/2016,11/01/2017,%,10,20,9931
GCOCFR01,03/02/2016,03/08/2016,$,265,265,1
NLJUN15b,31/05/2015,31/08/2015,$,20,20,9966
ITPFEB153,02/09/2015,02/09/2016,$,350,350,1
cap1011,16/02/2015,16/02/2016,$,100,100,1
CBSSSYD16,30/05/2016,31/08/2016,$,25,25,9998
NLDEC13,30/11/2013,31/12/2013,%,150,10,1979
NLJAN14,01/01/2014,31/01/2014,%,10,10,9988
NLFEB14,30/01/2014,28/02/2014,%,100,10,9979
bullacomp1,14/03/2014,14/03/2015,$,260,260,1
NLMAY14,01/05/2014,14/06/2014,%,10,10,9972
PETERS,07/12/2013,31/01/2014,%,50,20,9999
NLMAR14,27/02/2014,29/04/2014,%,10,10,9969
NLAPR14,31/03/2014,01/05/2014,%,100,10,9965
VMXMAS14,10/12/2014,28/02/2015,%,20,20,9999
ACDN14,21/11/2014,01/02/2015,%,10,20,9999
savourspecial,06/08/2014,31/08/2014,%,1,20,9998
NLSEP14a,01/09/2014,30/09/2014,%,1,10,9979
hunter14,05/07/2014,13/07/2014,%,20,20,9999
NLOCT14,30/09/2014,04/11/2014,%,10,10,9979
NLAUG15a,03/08/2015,31/10/2015,$,20,20,9969
CBSS2014a,06/10/2015,30/11/2015,$,260,260,0
PHPS001a,26/09/2016,26/09/2017,$,268,268,1
openday14,18/05/2014,20/05/2014,%,20,20,9971
NLJUN14a,01/06/2014,07/07/2014,%,10,10,9973
ITPJUL14,25/08/2014,22/09/2014,%,20,20,9999
NLAUG14a,01/08/2014,20/09/2014,%,10,10,9973
SWEETSTREET,13/08/2014,20/08/2014,%,1,20,9999
NLNOV14,31/10/2014,31/01/2015,%,5,10,9984
NLJAN15,22/12/2014,28/02/2015,$,20,20,9955
NLJUL14a,02/07/2014,02/08/2014,%,10,10,9967
NLSEP15c,03/09/2015,30/11/2015,$,20,20,9984
SSPA001,23/07/2016,23/07/2017,$,265,265,1
CBSS14MEL,26/09/2014,17/02/2015,%,20,20,9968
2NB4XU,14/01/2015,14/06/2016,$,260,260,0
NR9TPY,14/01/2015,14/06/2016,$,260,260,1
MERRYXMAS,15/12/2014,31/01/2015,$,40,40,9988
cap1001,16/02/2015,16/02/2016,%,100,100,1
cap1002,16/02/2015,16/02/2016,$,100,100,1
cap1003,16/02/2015,16/02/2016,$,100,100,1
cap1004,16/02/2015,16/02/2016,$,100,100,1
cap1005,16/02/2015,16/02/2016,$,100,100,0
cap1006,16/02/2015,16/02/2016,$,100,100,1
cap1007,16/02/2015,16/02/2016,$,100,100,1
cap1008,16/02/2015,16/02/2016,$,100,100,1
cap1009,16/02/2015,16/02/2016,$,100,100,1
cap1010,16/02/2015,16/02/2016,$,100,100,1
cap1012,16/02/2015,16/02/2016,$,100,100,0
NLMAR15a,01/03/2015,30/04/2015,$,20,20,9973
WCMFR15,02/03/2015,02/09/2015,$,2000,2000,1
dessert20001,26/02/2015,26/07/2015,$,260,260,0
dessert20002,26/02/2015,26/07/2015,$,260,260,0
fooddesign15,04/03/2015,31/03/2016,$,260,260,0
VNLN15,16/03/2015,16/09/2015,$,260,260,0
languagechamps,19/01/2015,01/01/2020,%,10,10,9999
NLFEB15b,02/02/2015,30/04/2015,$,20,20,9989
ctfoa14,28/01/2015,28/07/2015,$,260,260,1
ITPNOV152,02/09/2015,02/09/2016,$,210,210,0
dcb1008,23/06/2015,23/12/2015,$,100,100,1
dcb1005,23/06/2015,16/02/2016,$,100,100,1
dcb1006,23/06/2015,23/12/2015,$,100,100,1
dcb1001,23/06/2015,16/02/2016,$,100,100,1
dcb1002,23/06/2015,16/02/2016,$,100,100,0
THANKSMUM,22/04/2015,11/05/2015,$,25,25,9979
CBSS1520,12/06/2015,12/12/2015,$,260,260,0
CBSS1521,12/06/2015,12/12/2015,$,260,260,1
CBSS1522,12/06/2015,12/12/2015,$,260,260,0
NLMAY15a,01/05/2015,31/07/2015,$,20,20,9978
CBSSMH15,21/10/2015,31/05/2016,%,20,20,9948
CBGT001,22/10/2015,15/05/2016,$,1000,1000,0
NLJAN16a,01/01/2016,31/01/2016,$,20,20,9986
XMAS15,11/12/2015,16/02/2016,$,25,25,9986
NLDEC15a,01/12/2015,31/01/2016,$,20,20,9984
smdec15a,10/12/2015,31/03/2017,$,25,25,9998
NLFEB16a,01/02/2016,29/02/2016,$,20,20,9988
FFHOC16az,08/04/2016,08/10/2016,$,265,265,1
NLMAR16b,01/03/2016,31/08/2016,$,20,20,9916
smmar16a,03/03/2016,31/05/2016,$,25,25,9985
NLJUL15c,07/07/2015,30/09/2015,$,20,20,9972
FABFSA,14/07/2015,01/01/2020,%,10,10,9999
CHOCCOMP16a,18/08/2016,18/01/2017,$,2000,2000,0
FFHOC16cx,08/04/2016,08/10/2016,$,265,265,1
ACDN16A,08/07/2016,30/09/2016,$,25,25,9999
smmay16a,10/05/2016,31/08/2016,$,25,25,9984
SPOTY16,19/05/2016,30/06/2016,$,25,25,9995
HOC2015,28/09/2015,05/10/2015,%,220,20,9939
FFMEL14,15/09/2014,31/10/2014,%,5,20,899
dcb1003,23/06/2015,23/12/2015,$,100,100,1
dcb1004,23/06/2015,16/02/2016,$,100,100,1
smfeb17z,01/02/2017,30/04/2017,$,25,25,9998
smoct16a,20/10/2016,21/04/2017,$,25,25,9991
bulla30,08/12/2015,31/12/2017,%,30,30,9999
ROS360,24/01/2014,24/07/2014,$,360,360,0
CBSSSCH14,20/03/2014,02/07/2014,%,50,20,9988
zhang15,13/06/2014,31/07/2014,%,2000,20,9997
Widiana,07/07/2014,08/07/2014,%,0,20,0
INTR,04/08/2014,05/08/2014,$,200,200,0
DAMIAN,04/08/2014,19/08/2014,%,15,15,2
DAMIAN2,18/09/2014,19/09/2014,%,100,15,0
NIGHTOWL,14/01/2014,14/07/2014,$,976,976,5
JIA01,18/08/2014,19/08/2014,$,100,100,0
PG20Gz4,03/05/2014,02/07/2014,%,100,20,0
CBSSmelb,17/06/2015,16/06/2016,$,260,260,0
CBSSVIP14,19/03/2014,31/05/2014,$,200,50,73
75HOC15,10/12/2015,27/04/2016,$,75,75,93
smjan16a,13/01/2016,30/04/2016,$,25,25,9994
FFHOC16by,08/04/2016,08/10/2016,$,265,265,1
MW0914,23/09/2014,23/09/2015,$,260,260,0
VIPXMAS13,25/12/2013,31/03/2014,$,60,50,88
30%OFF,18/12/2013,18/12/2013,%,1,30,0
MURIEL15,28/02/2014,28/02/2014,%,1,15,0
VIP100,16/04/2014,16/04/2014,$,100,100,0
SUDARAT,20/01/2014,22/07/2014,$,178,178,0
ITPJ17,11/01/2017,11/02/2017,%,20,20,7
sydneypastry,29/04/2014,31/05/2014,%,20,20,9999
acfkanjiro,05/05/2014,30/05/2014,%,20,20,9999
epicuredemo14,30/04/2014,31/05/2014,%,20,20,9999
agedemo14,01/05/2014,31/05/2014,%,20,20,9999
onlinekanjiro,02/05/2014,31/05/2014,%,20,20,9998
eggaron,02/03/2015,04/03/2015,%,20,20,9998
soccolours,31/07/2014,03/08/2014,%,1,15,9997
DAY4,06/12/2013,06/12/2013,%,1,20,9999
DAY10,13/12/2013,13/12/2013,%,1,25,9999
compclass02,21/01/2014,21/01/2014,$,598,598,0
ghana17a,20/03/2017,04/04/2017,%,5,20,9919
EASTER16,01/03/2016,15/03/2016,%,2,20,9933
WEKEND15,21/04/2015,22/04/2015,$,520,520,0
NLJUN16a,06/06/2016,04/01/2017,$,20,20,9857
ghana17,09/01/2017,23/01/2017,%,1,20,9967
DAY2,04/12/2013,04/12/2013,%,1,20,9995
easter15,02/03/2015,09/03/2015,%,1,20,9999
EASTER10SL,15/12/2016,23/12/2016,%,10,10,0
CCOR17,12/01/2017,31/03/2017,%,1,20,0
tank17c,28/03/2017,05/04/2017,%,20,20,9989
TANKYOU16,26/08/2016,11/09/2016,%,5,20,9959
WCD14,12/09/2014,16/09/2014,%,5,20,277
DAY7,10/12/2013,10/12/2013,%,1,15,9996
DAY9,12/12/2013,12/12/2013,%,1,20,9999
